{
  "type": "service_account",
  "project_id": "foodkonnect-65adf",
  "private_key_id": "db39633317dd5a631fb6683e53f4e7daea83e9f0",
  "private_key": "-----BEGIN PRIVATE KEY-----\nMIIEvQIBADANBgkqhkiG9w0BAQEFAASCBKcwggSjAgEAAoIBAQCkobXTwOCdqXta\noh3BdRT3j3BY+fzWdW6uu61enmupRjomthT/DbWhhoXqt0jlQa/8Lt7KnNJHmQk6\nMV1UYZKk2ffcB+rBozqGY1J564gcVzNtaSBRh3vPStrhgjun22X0+K3E2y+Wbm2T\nn3rzjGFWE6g0P0UTWuDwxI81ansbOoIzWztLhwgyX/cVz9AYnjp4U1/rVRRaqnLK\narIDyQaaLYaSTQOCg4tmCiela46RGoXKBRdIGlA0bncat1fv8s4bJM7ZOIRKkWyC\n+t4KhxqNlI24MAn5/MLEUG1k913kPZQqCoHcLTLy1nIhaDo1Pm+kO2eYl+eoOU1E\nxvJefWUTAgMBAAECggEAAzYuZGOiXiEEyYdZGkGM96liMTIrRwnCb4E0yCBCDGrU\nzpWFwlYDoZOMwD/0GZjW9I37hatahNAM+IgnAHLo1/NynOXApCdpiF6eqMc6AAeJ\ndsxyt3Rzq18T9wtB26vxiL5jMXBvNLmRxKv7S44FBhdbFC3ZzJ9cvQWwn4OkxCqv\nhHldqKxH00uRlET4700y/0YRQiX069kvkQhrFy+uaioFptlPDxV445Y4yc+Qu4Gz\nVRslCsiN9XDk5foKR30xHwbEBO6UIMhHEpNQY3wURWLV5hxNO64bh5JboueWVmZm\neKSFSIbvg9JMiBvvz05rY9BUZfts1jMiliyRTRm7MQKBgQDVaugUS+phl6SZUd7G\n+Klesmc3QnWvX0zg7OHZqgwiC/HTcvukKDrdIolOfrIPDJ/2fdgcRAh5mJUO1/MS\n67EJ6O+zv+9/J/gj2gaBURPAZD2JekhbEU/gl1XOPe/t2VBhiqnrFhb1EI1bwN2z\ngIFUItnNaHQ7oCkM4qGgb4duQwKBgQDFeuHbAGzLiFTfDJ3MGTjHQSdr/tSRX3Yd\nldqEIYSBq64rsH7xvuVFB0+D8eRW9J+iqLBOBw3I/mTnIqQuSL4wrfmgg/2epJHn\nebjMsiYCqnhMb+xriJg3o9c9FcOcGMuVh6avl+OS7qMfTlN6V8iuh/Ht0t2GqaiS\nni9v1bmI8QKBgQCOiNn7RECDcX3zECTTipvDrS8WTwK+X82+ozar4tA7pPKboD3E\ng0HdEwXVMPTG7E2hmKbPKfjnDSrwQPYM+vDAh5wf1t6jdBRcDW8uyvGAGvKmcM8G\nU2efvjMGjYNCvVLb8npNkfE/NxDR6Nuo2PiHMsd4UnzenbcM7ge4WQSAdQKBgGCZ\nXYW9TXq6M5nwF/hQlh+R1XDUdLKv2Z1bQkrEAodTrZ0ddttWH9yGWPUYDDQk8Tml\n/qgMd0fMeRs/LMSfPLmfQK6uIg/KPLzYI/etZT6EmNf7H9DyPlNpR85PqSHgVyXL\n91OJnv6u0QhtThRYgIgvY76MGWTX9OfTjSzNhTZhAoGANZy+xAT4BPq3oFbEvSDw\nkr3e4NXnfuDbloBjc/27CsqM/Tmtm9D8CMas3OMwzPB+gHX2+pXYPtJT1QUzwZX2\nZgBNd+Ff7cUGyrfusLfy0MsLEnzisAbFtkS7MViSL+5eVw2VsjgV3GTTUPJDHo70\n1mchmY3tO/QvlTzf84QvhIg=\n-----END PRIVATE KEY-----\n",
  "client_email": "firebase-adminsdk-cxfjn@foodkonnect-65adf.iam.gserviceaccount.com",
  "client_id": "118051023176612254432",
  "auth_uri": "https://accounts.google.com/o/oauth2/auth",
  "token_uri": "https://accounts.google.com/o/oauth2/token",
  "auth_provider_x509_cert_url": "https://www.googleapis.com/oauth2/v1/certs",
  "client_x509_cert_url": "https://www.googleapis.com/robot/v1/metadata/x509/firebase-adminsdk-cxfjn%40foodkonnect-65adf.iam.gserviceaccount.com"
}
